<svg width="402" height="402" viewBox="0 0 402 402" fill="none" xmlns="http://www.w3.org/2000/svg">
<circle cx="201" cy="201" r="199.5" fill="#3DC06E" stroke="#3DC06E" stroke-width="3"/>
<path d="M216.884 195.026C217.569 196.364 218.93 197.137 220.337 197.137C220.925 197.137 221.528 197.001 222.089 196.715C222.317 196.599 245.076 185.038 256.301 181.492C258.335 180.846 259.464 178.673 258.818 176.64C258.176 174.606 256.019 173.473 253.966 174.115C242.141 177.854 219.537 189.338 218.578 189.825C216.676 190.792 215.918 193.12 216.884 195.026Z" fill="white"/>
<path d="M220.337 150.737C220.925 150.737 221.528 150.602 222.089 150.316C222.317 150.2 245.076 138.638 256.301 135.093C258.335 134.447 259.464 132.274 258.818 130.24C258.176 128.206 256.019 127.073 253.966 127.715C242.141 131.455 219.537 142.938 218.578 143.426C216.676 144.392 215.918 146.72 216.884 148.626C217.569 149.964 218.93 150.737 220.337 150.737Z" fill="white"/>
<path d="M313.133 143.003C310.995 143.003 309.267 144.736 309.267 146.87V297.669C309.267 304.064 304.062 309.269 297.667 309.269H204.867V300.372C210.505 298.4 225.19 293.803 239.667 293.803C273.349 293.803 296.221 301.261 296.449 301.338C297.612 301.725 298.912 301.532 299.929 300.805C300.938 300.078 301.533 298.91 301.533 297.669V127.537C301.533 125.724 300.277 124.154 298.505 123.763C298.505 123.763 295.474 123.086 290.293 122.135C288.2 121.748 286.179 123.14 285.792 125.236C285.405 127.339 286.793 129.354 288.893 129.741C290.869 130.104 292.524 130.425 293.8 130.68V292.53C285.038 290.233 265.581 286.069 239.667 286.069C222.819 286.069 206.271 291.602 201.151 293.478C196.6 291.467 182.842 286.069 166.2 286.069C139.566 286.069 117.627 290.462 108.2 292.693V130.529C115.922 128.631 138.728 123.67 166.2 123.67C180.298 123.67 192.389 128.059 197.133 130.042V282.203C197.133 283.595 197.883 284.882 199.094 285.567C200.304 286.255 201.796 286.235 202.991 285.516C203.374 285.288 241.685 262.405 275.688 251.072C277.269 250.542 278.333 249.069 278.333 247.403V88.8703C278.333 87.602 277.71 86.4148 276.666 85.6921C275.63 84.9689 274.3 84.8026 273.105 85.2476C242.168 96.8511 210.864 116.331 210.551 116.525C208.741 117.658 208.188 120.043 209.321 121.853C210.45 123.663 212.836 124.216 214.649 123.083C214.935 122.901 242.168 105.958 270.599 94.5239V244.635C244.205 253.806 216.648 268.782 204.866 275.486V127.537C204.866 126.072 204.039 124.734 202.728 124.077C202.063 123.748 186.218 115.937 166.2 115.937C131.261 115.937 104.4 123.497 103.27 123.821C101.612 124.293 100.467 125.812 100.467 127.537V297.669C100.467 298.88 101.039 300.024 102.002 300.755C102.683 301.27 103.502 301.536 104.334 301.536C104.69 301.536 105.045 301.486 105.393 301.386C105.66 301.312 132.398 293.803 166.2 293.803C180.337 293.803 192.416 298.203 197.133 300.179V309.269H104.334C97.9385 309.269 92.734 304.065 92.734 297.669V146.87C92.734 144.736 91.0017 143.004 88.8675 143.004C86.7333 143.004 85.001 144.736 85.001 146.87V297.669C85.001 308.33 93.6737 317.003 104.334 317.003H297.667C308.327 317.003 317 308.33 317 297.669V146.87C317 144.736 315.271 143.003 313.133 143.003Z" fill="white"/>
<path d="M216.884 171.825C217.569 173.163 218.93 173.936 220.337 173.936C220.925 173.936 221.528 173.801 222.089 173.515C222.317 173.399 245.076 161.838 256.301 158.292C258.335 157.646 259.464 155.473 258.818 153.439C258.176 151.405 256.019 150.273 253.966 150.915C242.141 154.654 219.537 166.138 218.578 166.625C216.676 167.591 215.918 169.919 216.884 171.825Z" fill="white"/>
<path d="M216.884 218.225C217.569 219.563 218.93 220.336 220.337 220.336C220.925 220.336 221.528 220.201 222.089 219.915C222.317 219.799 245.076 208.237 256.301 204.692C258.335 204.046 259.464 201.873 258.818 199.839C258.176 197.805 256.019 196.672 253.966 197.315C242.141 201.054 219.537 212.538 218.578 213.025C216.676 213.991 215.918 216.319 216.884 218.225Z" fill="white"/>
<path d="M178.682 156.761C154.806 151.159 127.673 158.297 126.533 158.602C124.472 159.155 123.246 161.274 123.799 163.339C124.263 165.067 125.825 166.204 127.53 166.204C127.863 166.204 128.199 166.161 128.536 166.072C128.795 165.999 154.918 159.128 176.919 164.29C178.988 164.773 181.08 163.485 181.567 161.405C182.054 159.329 180.762 157.249 178.682 156.761Z" fill="white"/>
<path d="M178.682 179.961C154.806 174.363 127.673 181.497 126.533 181.802C124.472 182.355 123.246 184.474 123.799 186.538C124.263 188.267 125.825 189.404 127.53 189.404C127.863 189.404 128.199 189.361 128.536 189.272C128.795 189.199 154.918 182.328 176.919 187.49C178.988 187.973 181.08 186.685 181.567 184.605C182.054 182.529 180.762 180.448 178.682 179.961Z" fill="white"/>
<path d="M216.884 241.425C217.569 242.763 218.93 243.536 220.337 243.536C220.925 243.536 221.528 243.4 222.089 243.115C222.317 242.999 245.076 231.437 256.301 227.891C258.335 227.246 259.464 225.073 258.818 223.039C258.176 221.005 256.019 219.872 253.966 220.514C242.141 224.253 219.537 235.737 218.578 236.224C216.676 237.191 215.918 239.519 216.884 241.425Z" fill="white"/>
<path d="M178.682 203.161C154.806 197.562 127.673 204.692 126.533 205.001C124.472 205.554 123.246 207.673 123.799 209.738C124.263 211.466 125.825 212.607 127.53 212.607C127.863 212.607 128.199 212.561 128.536 212.472C128.795 212.398 154.918 205.527 176.919 210.689C178.988 211.172 181.08 209.885 181.567 207.804C182.054 205.728 180.762 203.648 178.682 203.161Z" fill="white"/>
<path d="M178.682 249.561C154.806 243.958 127.673 251.096 126.533 251.401C124.472 251.954 123.246 254.073 123.799 256.138C124.263 257.866 125.825 259.007 127.53 259.007C127.863 259.007 128.199 258.961 128.536 258.872C128.795 258.798 154.918 251.927 176.919 257.089C178.988 257.568 181.08 256.285 181.567 254.204C182.054 252.128 180.762 250.048 178.682 249.561Z" fill="white"/>
<path d="M178.682 226.361C154.806 220.758 127.673 227.892 126.533 228.201C124.472 228.754 123.246 230.873 123.799 232.938C124.263 234.666 125.825 235.807 127.53 235.807C127.863 235.807 128.199 235.761 128.536 235.672C128.795 235.598 154.918 228.727 176.919 233.889C178.988 234.372 181.08 233.085 181.567 231.004C182.054 228.928 180.762 226.848 178.682 226.361Z" fill="white"/>
<rect x="182.5" y="75.5" width="147" height="56" rx="28" fill="white" stroke="#3DC06E" stroke-width="3"/>
<path d="M214.157 105.405C214.157 97.4304 202.114 99.2969 202.114 95.1567C202.114 93.6636 203.19 92.9509 204.613 92.9849C206.209 93.0188 207.32 93.9351 207.424 95.4622H213.845C213.602 90.9148 210.027 88.3357 204.717 88.3357C199.615 88.3357 195.832 90.8469 195.832 95.3604C195.762 103.81 207.945 101.435 207.945 105.846C207.945 107.238 206.834 108.086 205.099 108.086C203.433 108.086 202.253 107.204 202.079 105.371H195.762C195.936 110.19 200.031 112.735 205.272 112.735C210.964 112.735 214.157 109.41 214.157 105.405Z" fill="#3DC06E"/>
<path d="M217.81 112.498H223.745V93.5618H217.81V112.498ZM220.795 91.5935C222.877 91.5935 224.3 90.2021 224.3 88.4714C224.3 86.7068 222.877 85.3154 220.795 85.3154C218.678 85.3154 217.255 86.7068 217.255 88.4714C217.255 90.2021 218.678 91.5935 220.795 91.5935Z" fill="#3DC06E"/>
<path d="M254.736 112.498H260.637V101.435C260.637 96.3445 257.548 93.3582 252.758 93.3582C249.947 93.3582 247.517 94.8853 246.233 96.8875C244.914 94.6138 242.554 93.3582 239.638 93.3582C237.105 93.3582 235.126 94.4102 233.981 95.9373V93.5618H228.046V112.498H233.981V102.215C233.981 99.738 235.439 98.3806 237.695 98.3806C239.951 98.3806 241.409 99.738 241.409 102.215V112.498H247.309V102.215C247.309 99.738 248.767 98.3806 251.023 98.3806C253.279 98.3806 254.736 99.738 254.736 102.215V112.498Z" fill="#3DC06E"/>
<path d="M270.723 96.2427V93.5618H264.788V121.525H270.723V109.851C271.799 111.446 273.846 112.769 276.692 112.769C281.447 112.769 285.231 108.969 285.231 102.996C285.231 97.0232 281.447 93.2903 276.692 93.2903C273.846 93.2903 271.799 94.5798 270.723 96.2427ZM279.191 102.996C279.191 106.016 277.178 107.713 274.922 107.713C272.701 107.713 270.688 106.05 270.688 103.03C270.688 100.01 272.701 98.3467 274.922 98.3467C277.178 98.3467 279.191 99.9756 279.191 102.996Z" fill="#3DC06E"/>
<path d="M288.344 112.498H294.279V87.3855H288.344V112.498Z" fill="#3DC06E"/>
<path d="M307.119 97.9395C309.097 97.9395 310.763 99.1272 310.763 101.197H303.335C303.683 99.0933 305.175 97.9395 307.119 97.9395ZM316.386 106.22H310.069C309.583 107.238 308.646 108.052 306.98 108.052C305.071 108.052 303.509 106.898 303.301 104.421H316.733C316.802 103.844 316.837 103.267 316.837 102.724C316.837 96.9553 312.845 93.2903 307.188 93.2903C301.426 93.2903 297.4 97.0232 297.4 103.03C297.4 109.036 301.496 112.769 307.188 112.769C312.012 112.769 315.449 109.919 316.386 106.22Z" fill="#3DC06E"/>
</svg>
