<svg width="56" height="72" viewBox="0 0 56 72" fill="none" xmlns="http://www.w3.org/2000/svg">
<path fill-rule="evenodd" clip-rule="evenodd" d="M45.4639 3.728C47.3212 4.40608 49.0337 5.16564 50.6013 6.00669L43.88 12.728L43.8799 12.728C42.6319 12.152 41.2639 11.672 39.7759 11.288C38.2879 10.904 36.7759 10.712 35.2399 10.712C32.5039 10.712 30.4639 11.216 29.1199 12.224C27.7759 13.232 27.1039 14.648 27.1039 16.472C27.1039 17.528 27.3439 18.416 27.8239 19.136C28.3519 19.808 29.0959 20.408 30.0559 20.936C31.0159 21.464 32.2159 21.944 33.6559 22.376C33.8029 22.4187 33.952 22.4616 34.1033 22.5048L26.3345 30.2735C25.8524 30.0919 25.3889 29.9074 24.9439 29.72C23.1679 28.904 21.6799 27.968 20.4799 26.912C19.2799 25.808 18.3679 24.56 17.7439 23.168C17.1679 21.728 16.8799 20.024 16.8799 18.056C16.8799 15.464 17.3599 13.16 18.3199 11.144C19.2799 9.128 20.5999 7.448 22.2799 6.104C24.0079 4.76 25.9999 3.752 28.2559 3.08C30.5119 2.36 32.9359 2 35.5279 2C39.1279 2 42.4399 2.576 45.4639 3.728ZM36.5457 33.3823L44.4314 25.4966C44.8072 25.6309 45.1754 25.7667 45.5359 25.904C47.5999 26.672 49.3279 27.632 50.7199 28.784C52.1599 29.936 53.2639 31.328 54.0319 32.96C54.7999 34.544 55.1839 36.512 55.1839 38.864C55.1839 41.6 54.6559 43.952 53.5999 45.92C52.5919 47.84 51.1999 49.4 49.4239 50.6C47.6959 51.8 45.6799 52.688 43.3759 53.264C41.1199 53.792 38.7439 54.056 36.2479 54.056C32.4079 54.056 28.6159 53.48 24.8719 52.328C23.0359 51.7631 21.2923 51.0828 19.641 50.287L26.7457 43.1823C27.9488 43.6436 29.2442 44.0522 30.6319 44.408C32.5039 44.888 34.4239 45.128 36.3919 45.128C41.8639 45.128 44.5999 43.376 44.5999 39.872C44.5999 38.768 44.2879 37.832 43.6639 37.064C43.0399 36.296 42.1519 35.624 40.9999 35.048C39.8479 34.472 38.4559 33.944 36.8239 33.464L36.5457 33.3823Z" fill="#257042"/>
<path fill-rule="evenodd" clip-rule="evenodd" d="M45.4639 1.728C47.3212 2.40608 49.0337 3.16564 50.6013 4.00669L43.88 10.728L43.8799 10.728C42.6319 10.152 41.2639 9.672 39.7759 9.288C38.2879 8.904 36.7759 8.712 35.2399 8.712C32.5039 8.712 30.4639 9.216 29.1199 10.224C27.7759 11.232 27.1039 12.648 27.1039 14.472C27.1039 15.528 27.3439 16.416 27.8239 17.136C28.3519 17.808 29.0959 18.408 30.0559 18.936C31.0159 19.464 32.2159 19.944 33.6559 20.376C33.8029 20.4187 33.952 20.4616 34.1033 20.5048L26.3345 28.2735C25.8524 28.0919 25.3889 27.9074 24.9439 27.72C23.1679 26.904 21.6799 25.968 20.4799 24.912C19.2799 23.808 18.3679 22.56 17.7439 21.168C17.1679 19.728 16.8799 18.024 16.8799 16.056C16.8799 13.464 17.3599 11.16 18.3199 9.144C19.2799 7.128 20.5999 5.448 22.2799 4.104C24.0079 2.76 25.9999 1.752 28.2559 1.08C30.5119 0.360001 32.9359 0 35.5279 0C39.1279 0 42.4399 0.576001 45.4639 1.728ZM36.5457 31.3823L44.4314 23.4966C44.8072 23.6309 45.1754 23.7667 45.5359 23.904C47.5999 24.672 49.3279 25.632 50.7199 26.784C52.1599 27.936 53.2639 29.328 54.0319 30.96C54.7999 32.544 55.1839 34.512 55.1839 36.864C55.1839 39.6 54.6559 41.952 53.5999 43.92C52.5919 45.84 51.1999 47.4 49.4239 48.6C47.6959 49.8 45.6799 50.688 43.3759 51.264C41.1199 51.792 38.7439 52.056 36.2479 52.056C32.4079 52.056 28.6159 51.48 24.8719 50.328C23.0359 49.7631 21.2923 49.0828 19.641 48.287L26.7457 41.1823C27.9488 41.6436 29.2442 42.0522 30.6319 42.408C32.5039 42.888 34.4239 43.128 36.3919 43.128C41.8639 43.128 44.5999 41.376 44.5999 37.872C44.5999 36.768 44.2879 35.832 43.6639 35.064C43.0399 34.296 42.1519 33.624 40.9999 33.048C39.8479 32.472 38.4559 31.944 36.8239 31.464L36.5457 31.3823Z" fill="#59DD8C"/>
<path fill-rule="evenodd" clip-rule="evenodd" d="M28.584 21.468C30.4413 22.1461 32.1538 22.9056 33.7215 23.7467L27.0001 30.468L27 30.468C25.752 29.892 24.384 29.412 22.896 29.028C21.408 28.644 19.896 28.452 18.36 28.452C15.624 28.452 13.584 28.956 12.24 29.964C10.896 30.972 10.224 32.388 10.224 34.212C10.224 35.268 10.464 36.156 10.944 36.876C11.472 37.548 12.216 38.148 13.176 38.676C14.136 39.204 15.336 39.684 16.776 40.116C16.923 40.1587 17.0721 40.2016 17.2234 40.2447L9.45463 48.0135C8.97252 47.8319 8.50898 47.6474 8.064 47.46C6.288 46.644 4.8 45.708 3.6 44.652C2.4 43.548 1.488 42.3 0.864 40.908C0.288 39.468 0 37.764 0 35.796C0 33.204 0.48 30.9 1.44 28.884C2.4 26.868 3.72 25.188 5.4 23.844C7.128 22.5 9.12 21.492 11.376 20.82C13.632 20.1 16.056 19.74 18.648 19.74C22.248 19.74 25.56 20.316 28.584 21.468ZM19.6658 51.1223L27.5515 43.2366C27.9273 43.3709 28.2955 43.5067 28.656 43.644C30.72 44.412 32.448 45.372 33.84 46.524C35.28 47.676 36.384 49.068 37.152 50.7C37.92 52.284 38.304 54.252 38.304 56.604C38.304 59.34 37.776 61.692 36.72 63.66C35.712 65.58 34.32 67.14 32.544 68.34C30.816 69.54 28.8 70.428 26.496 71.004C24.24 71.532 21.864 71.796 19.368 71.796C15.528 71.796 11.736 71.22 7.992 70.068C6.15603 69.5031 4.41241 68.8227 2.76112 68.027L9.86584 60.9223C11.0689 61.3836 12.3643 61.7922 13.752 62.148C15.624 62.628 17.544 62.868 19.512 62.868C24.984 62.868 27.72 61.116 27.72 57.612C27.72 56.508 27.408 55.572 26.784 54.804C26.16 54.036 25.272 53.364 24.12 52.788C22.968 52.212 21.576 51.684 19.944 51.204L19.6658 51.1223Z" fill="#257042"/>
<path fill-rule="evenodd" clip-rule="evenodd" d="M28.584 19.468C30.4413 20.1461 32.1538 20.9056 33.7215 21.7467L27.0001 28.468L27 28.468C25.752 27.892 24.384 27.412 22.896 27.028C21.408 26.644 19.896 26.452 18.36 26.452C15.624 26.452 13.584 26.956 12.24 27.964C10.896 28.972 10.224 30.388 10.224 32.212C10.224 33.268 10.464 34.156 10.944 34.876C11.472 35.548 12.216 36.148 13.176 36.676C14.136 37.204 15.336 37.684 16.776 38.116C16.923 38.1587 17.0721 38.2016 17.2234 38.2447L9.45463 46.0135C8.97252 45.8319 8.50898 45.6474 8.064 45.46C6.288 44.644 4.8 43.708 3.6 42.652C2.4 41.548 1.488 40.3 0.864 38.908C0.288 37.468 0 35.764 0 33.796C0 31.204 0.48 28.9 1.44 26.884C2.4 24.868 3.72 23.188 5.4 21.844C7.128 20.5 9.12 19.492 11.376 18.82C13.632 18.1 16.056 17.74 18.648 17.74C22.248 17.74 25.56 18.316 28.584 19.468ZM19.6658 49.1223L27.5515 41.2366C27.9273 41.3709 28.2955 41.5067 28.656 41.644C30.72 42.412 32.448 43.372 33.84 44.524C35.28 45.676 36.384 47.068 37.152 48.7C37.92 50.284 38.304 52.252 38.304 54.604C38.304 57.34 37.776 59.692 36.72 61.66C35.712 63.58 34.32 65.14 32.544 66.34C30.816 67.54 28.8 68.428 26.496 69.004C24.24 69.532 21.864 69.796 19.368 69.796C15.528 69.796 11.736 69.22 7.992 68.068C6.15603 67.5031 4.41241 66.8227 2.76112 66.027L9.86584 58.9223C11.0689 59.3836 12.3643 59.7922 13.752 60.148C15.624 60.628 17.544 60.868 19.512 60.868C24.984 60.868 27.72 59.116 27.72 55.612C27.72 54.508 27.408 53.572 26.784 52.804C26.16 52.036 25.272 51.364 24.12 50.788C22.968 50.212 21.576 49.684 19.944 49.204L19.6658 49.1223Z" fill="#59DD8C"/>
</svg>
