<svg width="661" height="609" viewBox="0 0 661 609" fill="none" xmlns="http://www.w3.org/2000/svg">
    <path fill-rule="evenodd" clip-rule="evenodd"
        d="M56.0251 391H50.5432C69.7164 410.882 84.0442 438.152 87.6287 475.058C48.7355 446.586 20.3686 430.257 0 421.915V575.859C55.9386 577.336 78.5119 555.611 103.755 531.315C112.257 523.132 121.063 514.657 131.548 506.679C122.707 501.018 113.868 494.826 105.056 488.097C100.553 484.659 96.175 481.367 91.9195 478.217C88.9748 440.277 75.0784 411.897 56.0251 391ZM288.772 552.661C327.745 591.522 375.677 626.319 453 599C562.307 560.38 506.815 471.427 448.853 415.162C422.812 499.44 362.544 547.236 288.772 552.661Z"
        fill="#FAFAFA" />
    <path fill-rule="evenodd" clip-rule="evenodd"
        d="M498.556 23.0973C551.184 25.1679 589.633 40.804 615.84 63.7251C619.411 84.2721 621.095 106.912 619.965 128.068C618.904 147.942 615.366 166.334 608.698 180.386C602.042 194.413 592.385 203.902 579.11 206.538C574.785 207.397 570.341 208.234 565.826 209.085L565.825 209.085L565.823 209.085C552.048 211.681 537.61 214.4 523.845 218.245C505.546 223.357 488.167 230.52 474.747 242.244C461.265 254.02 451.891 270.3 449.472 293.369C447.438 312.772 450.327 336.926 459.723 367.22C458.959 370.876 458.236 374.667 457.556 378.597C426.556 557.597 261.556 607.597 105.056 488.097C100.553 484.659 96.175 481.367 91.9196 478.217C87.8562 425.865 62.9409 391.715 32.3978 370.312C22.0373 363.052 11.0388 357.263 0 352.723V210.598C58.4168 260.871 156.058 320.316 198.5 303C220.457 294.041 245.198 256.091 274.669 210.885C329.086 127.414 399.631 19.2052 498.556 23.0973ZM0 421.915C20.3686 430.257 48.7355 446.586 87.6287 475.058C82.8565 425.923 59.0417 393.867 30.1023 373.588C20.4743 366.841 10.2704 361.393 0 357.057V421.915ZM453.45 293.787C451.64 311.048 453.854 332.469 461.51 359.218C482.573 270.841 529.324 268.176 571.951 265.747C602.321 264.016 630.598 262.404 646 230C670.382 178.703 665.91 111.804 620.618 68.1139C623.663 87.5945 625.012 108.581 623.96 128.282C622.884 148.425 619.29 167.395 612.312 182.101C605.321 196.832 594.815 207.498 579.89 210.462C575.485 211.336 570.991 212.183 566.448 213.039L566.438 213.041L566.433 213.042L566.432 213.042L566.431 213.042C552.696 215.63 538.504 218.304 524.921 222.098C506.86 227.143 490.145 234.104 477.378 245.256C464.673 256.354 455.766 271.7 453.45 293.787Z"
        fill="url(#paint0_linear)" />
    <g opacity="0.1">
        <path
            d="M361.227 4.60453C361.227 7.14762 359.162 9.20918 356.614 9.20918C354.066 9.20918 352 7.14762 352 4.60453C352 2.06144 354.066 -0.00012207 356.614 -0.00012207C359.162 -0.00012207 361.227 2.06144 361.227 4.60453Z"
            fill="url(#paint1_linear)" />
        <path
            d="M377.375 4.60453C377.375 7.14762 375.309 9.20918 372.761 9.20918C370.213 9.20918 368.148 7.14762 368.148 4.60453C368.148 2.06144 370.213 -0.00012207 372.761 -0.00012207C375.309 -0.00012207 377.375 2.06144 377.375 4.60453Z"
            fill="url(#paint2_linear)" />
        <path
            d="M388.909 9.20918C391.457 9.20918 393.523 7.14762 393.523 4.60453C393.523 2.06144 391.457 -0.00012207 388.909 -0.00012207C386.361 -0.00012207 384.295 2.06144 384.295 4.60453C384.295 7.14762 386.361 9.20918 388.909 9.20918Z"
            fill="url(#paint3_linear)" />
        <path
            d="M409.67 4.60453C409.67 7.14762 407.605 9.20918 405.057 9.20918C402.509 9.20918 400.443 7.14762 400.443 4.60453C400.443 2.06144 402.509 -0.00012207 405.057 -0.00012207C407.605 -0.00012207 409.67 2.06144 409.67 4.60453Z"
            fill="url(#paint4_linear)" />
        <path
            d="M421.205 9.20918C423.753 9.20918 425.818 7.14762 425.818 4.60453C425.818 2.06144 423.753 -0.00012207 421.205 -0.00012207C418.657 -0.00012207 416.591 2.06144 416.591 4.60453C416.591 7.14762 418.657 9.20918 421.205 9.20918Z"
            fill="url(#paint5_linear)" />
        <path
            d="M441.966 4.60453C441.966 7.14762 439.9 9.20918 437.352 9.20918C434.804 9.20918 432.739 7.14762 432.739 4.60453C432.739 2.06144 434.804 -0.00012207 437.352 -0.00012207C439.9 -0.00012207 441.966 2.06144 441.966 4.60453Z"
            fill="url(#paint6_linear)" />
        <path
            d="M453.5 9.20918C456.048 9.20918 458.114 7.14762 458.114 4.60453C458.114 2.06144 456.048 -0.00012207 453.5 -0.00012207C450.952 -0.00012207 448.886 2.06144 448.886 4.60453C448.886 7.14762 450.952 9.20918 453.5 9.20918Z"
            fill="url(#paint7_linear)" />
        <path
            d="M474.261 4.60453C474.261 7.14762 472.196 9.20918 469.648 9.20918C467.1 9.20918 465.034 7.14762 465.034 4.60453C465.034 2.06144 467.1 -0.00012207 469.648 -0.00012207C472.196 -0.00012207 474.261 2.06144 474.261 4.60453Z"
            fill="url(#paint8_linear)" />
        <path
            d="M485.795 9.20918C488.344 9.20918 490.409 7.14762 490.409 4.60453C490.409 2.06144 488.344 -0.00012207 485.795 -0.00012207C483.247 -0.00012207 481.182 2.06144 481.182 4.60453C481.182 7.14762 483.247 9.20918 485.795 9.20918Z"
            fill="url(#paint9_linear)" />
        <path
            d="M506.557 4.60453C506.557 7.14762 504.491 9.20918 501.943 9.20918C499.395 9.20918 497.33 7.14762 497.33 4.60453C497.33 2.06144 499.395 -0.00012207 501.943 -0.00012207C504.491 -0.00012207 506.557 2.06144 506.557 4.60453Z"
            fill="url(#paint10_linear)" />
        <path
            d="M518.091 9.20918C520.639 9.20918 522.705 7.14762 522.705 4.60453C522.705 2.06144 520.639 -0.00012207 518.091 -0.00012207C515.543 -0.00012207 513.477 2.06144 513.477 4.60453C513.477 7.14762 515.543 9.20918 518.091 9.20918Z"
            fill="url(#paint11_linear)" />
        <path
            d="M538.852 4.60453C538.852 7.14762 536.787 9.20918 534.239 9.20918C531.691 9.20918 529.625 7.14762 529.625 4.60453C529.625 2.06144 531.691 -0.00012207 534.239 -0.00012207C536.787 -0.00012207 538.852 2.06144 538.852 4.60453Z"
            fill="url(#paint12_linear)" />
        <path
            d="M550.386 9.20918C552.934 9.20918 555 7.14762 555 4.60453C555 2.06144 552.934 -0.00012207 550.386 -0.00012207C547.838 -0.00012207 545.773 2.06144 545.773 4.60453C545.773 7.14762 547.838 9.20918 550.386 9.20918Z"
            fill="url(#paint13_linear)" />
        <path
            d="M361.227 19.9534C361.227 22.4965 359.162 24.558 356.614 24.558C354.066 24.558 352 22.4965 352 19.9534C352 17.4103 354.066 15.3487 356.614 15.3487C359.162 15.3487 361.227 17.4103 361.227 19.9534Z"
            fill="url(#paint14_linear)" />
        <path
            d="M372.761 24.558C375.309 24.558 377.375 22.4965 377.375 19.9534C377.375 17.4103 375.309 15.3487 372.761 15.3487C370.213 15.3487 368.148 17.4103 368.148 19.9534C368.148 22.4965 370.213 24.558 372.761 24.558Z"
            fill="url(#paint15_linear)" />
        <path
            d="M393.523 19.9534C393.523 22.4965 391.457 24.558 388.909 24.558C386.361 24.558 384.295 22.4965 384.295 19.9534C384.295 17.4103 386.361 15.3487 388.909 15.3487C391.457 15.3487 393.523 17.4103 393.523 19.9534Z"
            fill="url(#paint16_linear)" />
        <path
            d="M405.057 24.558C407.605 24.558 409.67 22.4965 409.67 19.9534C409.67 17.4103 407.605 15.3487 405.057 15.3487C402.509 15.3487 400.443 17.4103 400.443 19.9534C400.443 22.4965 402.509 24.558 405.057 24.558Z"
            fill="url(#paint17_linear)" />
        <path
            d="M425.818 19.9534C425.818 22.4965 423.753 24.558 421.205 24.558C418.657 24.558 416.591 22.4965 416.591 19.9534C416.591 17.4103 418.657 15.3487 421.205 15.3487C423.753 15.3487 425.818 17.4103 425.818 19.9534Z"
            fill="url(#paint18_linear)" />
        <path
            d="M437.352 24.558C439.9 24.558 441.966 22.4965 441.966 19.9534C441.966 17.4103 439.9 15.3487 437.352 15.3487C434.804 15.3487 432.739 17.4103 432.739 19.9534C432.739 22.4965 434.804 24.558 437.352 24.558Z"
            fill="url(#paint19_linear)" />
        <path
            d="M458.114 19.9534C458.114 22.4965 456.048 24.558 453.5 24.558C450.952 24.558 448.886 22.4965 448.886 19.9534C448.886 17.4103 450.952 15.3487 453.5 15.3487C456.048 15.3487 458.114 17.4103 458.114 19.9534Z"
            fill="url(#paint20_linear)" />
        <path
            d="M469.648 24.558C472.196 24.558 474.261 22.4965 474.261 19.9534C474.261 17.4103 472.196 15.3487 469.648 15.3487C467.1 15.3487 465.034 17.4103 465.034 19.9534C465.034 22.4965 467.1 24.558 469.648 24.558Z"
            fill="url(#paint21_linear)" />
        <path
            d="M490.409 19.9534C490.409 22.4965 488.344 24.558 485.795 24.558C483.247 24.558 481.182 22.4965 481.182 19.9534C481.182 17.4103 483.247 15.3487 485.795 15.3487C488.344 15.3487 490.409 17.4103 490.409 19.9534Z"
            fill="url(#paint22_linear)" />
        <path
            d="M501.943 24.558C504.491 24.558 506.557 22.4965 506.557 19.9534C506.557 17.4103 504.491 15.3487 501.943 15.3487C499.395 15.3487 497.33 17.4103 497.33 19.9534C497.33 22.4965 499.395 24.558 501.943 24.558Z"
            fill="url(#paint23_linear)" />
        <path
            d="M522.705 19.9534C522.705 22.4965 520.639 24.558 518.091 24.558C515.543 24.558 513.477 22.4965 513.477 19.9534C513.477 17.4103 515.543 15.3487 518.091 15.3487C520.639 15.3487 522.705 17.4103 522.705 19.9534Z"
            fill="url(#paint24_linear)" />
        <path
            d="M534.239 24.558C536.787 24.558 538.852 22.4965 538.852 19.9534C538.852 17.4103 536.787 15.3487 534.239 15.3487C531.691 15.3487 529.625 17.4103 529.625 19.9534C529.625 22.4965 531.691 24.558 534.239 24.558Z"
            fill="url(#paint25_linear)" />
        <path
            d="M555 19.9534C555 22.4965 552.934 24.558 550.386 24.558C547.838 24.558 545.773 22.4965 545.773 19.9534C545.773 17.4103 547.838 15.3487 550.386 15.3487C552.934 15.3487 555 17.4103 555 19.9534Z"
            fill="url(#paint26_linear)" />
        <path
            d="M356.614 39.9069C359.162 39.9069 361.227 37.8453 361.227 35.3022C361.227 32.7591 359.162 30.6976 356.614 30.6976C354.066 30.6976 352 32.7591 352 35.3022C352 37.8453 354.066 39.9069 356.614 39.9069Z"
            fill="url(#paint27_linear)" />
        <path
            d="M377.375 35.3022C377.375 37.8453 375.309 39.9069 372.761 39.9069C370.213 39.9069 368.148 37.8453 368.148 35.3022C368.148 32.7591 370.213 30.6976 372.761 30.6976C375.309 30.6976 377.375 32.7591 377.375 35.3022Z"
            fill="url(#paint28_linear)" />
        <path
            d="M388.909 39.9069C391.457 39.9069 393.523 37.8453 393.523 35.3022C393.523 32.7591 391.457 30.6976 388.909 30.6976C386.361 30.6976 384.295 32.7591 384.295 35.3022C384.295 37.8453 386.361 39.9069 388.909 39.9069Z"
            fill="url(#paint29_linear)" />
        <path
            d="M409.67 35.3022C409.67 37.8453 407.605 39.9069 405.057 39.9069C402.509 39.9069 400.443 37.8453 400.443 35.3022C400.443 32.7591 402.509 30.6976 405.057 30.6976C407.605 30.6976 409.67 32.7591 409.67 35.3022Z"
            fill="url(#paint30_linear)" />
        <path
            d="M421.205 39.9069C423.753 39.9069 425.818 37.8453 425.818 35.3022C425.818 32.7591 423.753 30.6976 421.205 30.6976C418.657 30.6976 416.591 32.7591 416.591 35.3022C416.591 37.8453 418.657 39.9069 421.205 39.9069Z"
            fill="url(#paint31_linear)" />
        <path
            d="M441.966 35.3022C441.966 37.8453 439.9 39.9069 437.352 39.9069C434.804 39.9069 432.739 37.8453 432.739 35.3022C432.739 32.7591 434.804 30.6976 437.352 30.6976C439.9 30.6976 441.966 32.7591 441.966 35.3022Z"
            fill="url(#paint32_linear)" />
        <path
            d="M453.5 39.9069C456.048 39.9069 458.114 37.8453 458.114 35.3022C458.114 32.7591 456.048 30.6976 453.5 30.6976C450.952 30.6976 448.886 32.7591 448.886 35.3022C448.886 37.8453 450.952 39.9069 453.5 39.9069Z"
            fill="url(#paint33_linear)" />
        <path
            d="M474.261 35.3022C474.261 37.8453 472.196 39.9069 469.648 39.9069C467.1 39.9069 465.034 37.8453 465.034 35.3022C465.034 32.7591 467.1 30.6976 469.648 30.6976C472.196 30.6976 474.261 32.7591 474.261 35.3022Z"
            fill="url(#paint34_linear)" />
        <path
            d="M485.795 39.9069C488.344 39.9069 490.409 37.8453 490.409 35.3022C490.409 32.7591 488.344 30.6976 485.795 30.6976C483.247 30.6976 481.182 32.7591 481.182 35.3022C481.182 37.8453 483.247 39.9069 485.795 39.9069Z"
            fill="url(#paint35_linear)" />
        <path
            d="M506.557 35.3022C506.557 37.8453 504.491 39.9069 501.943 39.9069C499.395 39.9069 497.33 37.8453 497.33 35.3022C497.33 32.7591 499.395 30.6976 501.943 30.6976C504.491 30.6976 506.557 32.7591 506.557 35.3022Z"
            fill="url(#paint36_linear)" />
        <path
            d="M518.091 39.9069C520.639 39.9069 522.705 37.8453 522.705 35.3022C522.705 32.7591 520.639 30.6976 518.091 30.6976C515.543 30.6976 513.477 32.7591 513.477 35.3022C513.477 37.8453 515.543 39.9069 518.091 39.9069Z"
            fill="url(#paint37_linear)" />
        <path
            d="M538.852 35.3022C538.852 37.8453 536.787 39.9069 534.239 39.9069C531.691 39.9069 529.625 37.8453 529.625 35.3022C529.625 32.7591 531.691 30.6976 534.239 30.6976C536.787 30.6976 538.852 32.7591 538.852 35.3022Z"
            fill="url(#paint38_linear)" />
        <path
            d="M550.386 39.9069C552.934 39.9069 555 37.8453 555 35.3022C555 32.7591 552.934 30.6976 550.386 30.6976C547.838 30.6976 545.773 32.7591 545.773 35.3022C545.773 37.8453 547.838 39.9069 550.386 39.9069Z"
            fill="url(#paint39_linear)" />
        <path
            d="M361.227 50.651C361.227 53.1941 359.162 55.2557 356.614 55.2557C354.066 55.2557 352 53.1941 352 50.651C352 48.108 354.066 46.0464 356.614 46.0464C359.162 46.0464 361.227 48.108 361.227 50.651Z"
            fill="url(#paint40_linear)" />
        <path
            d="M372.761 55.2557C375.309 55.2557 377.375 53.1941 377.375 50.651C377.375 48.108 375.309 46.0464 372.761 46.0464C370.213 46.0464 368.148 48.108 368.148 50.651C368.148 53.1941 370.213 55.2557 372.761 55.2557Z"
            fill="url(#paint41_linear)" />
        <path
            d="M393.523 50.651C393.523 53.1941 391.457 55.2557 388.909 55.2557C386.361 55.2557 384.295 53.1941 384.295 50.651C384.295 48.108 386.361 46.0464 388.909 46.0464C391.457 46.0464 393.523 48.108 393.523 50.651Z"
            fill="url(#paint42_linear)" />
        <path
            d="M405.057 55.2557C407.605 55.2557 409.67 53.1941 409.67 50.651C409.67 48.108 407.605 46.0464 405.057 46.0464C402.509 46.0464 400.443 48.108 400.443 50.651C400.443 53.1941 402.509 55.2557 405.057 55.2557Z"
            fill="url(#paint43_linear)" />
        <path
            d="M425.818 50.651C425.818 53.1941 423.753 55.2557 421.205 55.2557C418.657 55.2557 416.591 53.1941 416.591 50.651C416.591 48.108 418.657 46.0464 421.205 46.0464C423.753 46.0464 425.818 48.108 425.818 50.651Z"
            fill="url(#paint44_linear)" />
        <path
            d="M437.352 55.2557C439.9 55.2557 441.966 53.1941 441.966 50.651C441.966 48.108 439.9 46.0464 437.352 46.0464C434.804 46.0464 432.739 48.108 432.739 50.651C432.739 53.1941 434.804 55.2557 437.352 55.2557Z"
            fill="url(#paint45_linear)" />
        <path
            d="M458.114 50.651C458.114 53.1941 456.048 55.2557 453.5 55.2557C450.952 55.2557 448.886 53.1941 448.886 50.651C448.886 48.108 450.952 46.0464 453.5 46.0464C456.048 46.0464 458.114 48.108 458.114 50.651Z"
            fill="url(#paint46_linear)" />
        <path
            d="M469.648 55.2557C472.196 55.2557 474.261 53.1941 474.261 50.651C474.261 48.108 472.196 46.0464 469.648 46.0464C467.1 46.0464 465.034 48.108 465.034 50.651C465.034 53.1941 467.1 55.2557 469.648 55.2557Z"
            fill="url(#paint47_linear)" />
        <path
            d="M490.409 50.651C490.409 53.1941 488.344 55.2557 485.795 55.2557C483.247 55.2557 481.182 53.1941 481.182 50.651C481.182 48.108 483.247 46.0464 485.795 46.0464C488.344 46.0464 490.409 48.108 490.409 50.651Z"
            fill="url(#paint48_linear)" />
        <path
            d="M501.943 55.2557C504.491 55.2557 506.557 53.1941 506.557 50.651C506.557 48.108 504.491 46.0464 501.943 46.0464C499.395 46.0464 497.33 48.108 497.33 50.651C497.33 53.1941 499.395 55.2557 501.943 55.2557Z"
            fill="url(#paint49_linear)" />
        <path
            d="M522.705 50.651C522.705 53.1941 520.639 55.2557 518.091 55.2557C515.543 55.2557 513.477 53.1941 513.477 50.651C513.477 48.108 515.543 46.0464 518.091 46.0464C520.639 46.0464 522.705 48.108 522.705 50.651Z"
            fill="url(#paint50_linear)" />
        <path
            d="M534.239 55.2557C536.787 55.2557 538.852 53.1941 538.852 50.651C538.852 48.108 536.787 46.0464 534.239 46.0464C531.691 46.0464 529.625 48.108 529.625 50.651C529.625 53.1941 531.691 55.2557 534.239 55.2557Z"
            fill="url(#paint51_linear)" />
        <path
            d="M555 50.651C555 53.1941 552.934 55.2557 550.386 55.2557C547.838 55.2557 545.773 53.1941 545.773 50.651C545.773 48.108 547.838 46.0464 550.386 46.0464C552.934 46.0464 555 48.108 555 50.651Z"
            fill="url(#paint52_linear)" />
        <path
            d="M356.614 70.6045C359.162 70.6045 361.227 68.543 361.227 65.9999C361.227 63.4568 359.162 61.3952 356.614 61.3952C354.066 61.3952 352 63.4568 352 65.9999C352 68.543 354.066 70.6045 356.614 70.6045Z"
            fill="url(#paint53_linear)" />
        <path
            d="M377.375 65.9999C377.375 68.543 375.309 70.6045 372.761 70.6045C370.213 70.6045 368.148 68.543 368.148 65.9999C368.148 63.4568 370.213 61.3952 372.761 61.3952C375.309 61.3952 377.375 63.4568 377.375 65.9999Z"
            fill="url(#paint54_linear)" />
        <path
            d="M388.909 70.6045C391.457 70.6045 393.523 68.543 393.523 65.9999C393.523 63.4568 391.457 61.3952 388.909 61.3952C386.361 61.3952 384.295 63.4568 384.295 65.9999C384.295 68.543 386.361 70.6045 388.909 70.6045Z"
            fill="url(#paint55_linear)" />
        <path
            d="M409.67 65.9999C409.67 68.543 407.605 70.6045 405.057 70.6045C402.509 70.6045 400.443 68.543 400.443 65.9999C400.443 63.4568 402.509 61.3952 405.057 61.3952C407.605 61.3952 409.67 63.4568 409.67 65.9999Z"
            fill="url(#paint56_linear)" />
        <path
            d="M421.205 70.6045C423.753 70.6045 425.818 68.543 425.818 65.9999C425.818 63.4568 423.753 61.3952 421.205 61.3952C418.657 61.3952 416.591 63.4568 416.591 65.9999C416.591 68.543 418.657 70.6045 421.205 70.6045Z"
            fill="url(#paint57_linear)" />
        <path
            d="M441.966 65.9999C441.966 68.543 439.9 70.6045 437.352 70.6045C434.804 70.6045 432.739 68.543 432.739 65.9999C432.739 63.4568 434.804 61.3952 437.352 61.3952C439.9 61.3952 441.966 63.4568 441.966 65.9999Z"
            fill="url(#paint58_linear)" />
        <path
            d="M453.5 70.6045C456.048 70.6045 458.114 68.543 458.114 65.9999C458.114 63.4568 456.048 61.3952 453.5 61.3952C450.952 61.3952 448.886 63.4568 448.886 65.9999C448.886 68.543 450.952 70.6045 453.5 70.6045Z"
            fill="url(#paint59_linear)" />
        <path
            d="M474.261 65.9999C474.261 68.543 472.196 70.6045 469.648 70.6045C467.1 70.6045 465.034 68.543 465.034 65.9999C465.034 63.4568 467.1 61.3952 469.648 61.3952C472.196 61.3952 474.261 63.4568 474.261 65.9999Z"
            fill="url(#paint60_linear)" />
        <path
            d="M485.795 70.6045C488.344 70.6045 490.409 68.543 490.409 65.9999C490.409 63.4568 488.344 61.3952 485.795 61.3952C483.247 61.3952 481.182 63.4568 481.182 65.9999C481.182 68.543 483.247 70.6045 485.795 70.6045Z"
            fill="url(#paint61_linear)" />
        <path
            d="M506.557 65.9999C506.557 68.543 504.491 70.6045 501.943 70.6045C499.395 70.6045 497.33 68.543 497.33 65.9999C497.33 63.4568 499.395 61.3952 501.943 61.3952C504.491 61.3952 506.557 63.4568 506.557 65.9999Z"
            fill="url(#paint62_linear)" />
        <path
            d="M518.091 70.6045C520.639 70.6045 522.705 68.543 522.705 65.9999C522.705 63.4568 520.639 61.3952 518.091 61.3952C515.543 61.3952 513.477 63.4568 513.477 65.9999C513.477 68.543 515.543 70.6045 518.091 70.6045Z"
            fill="url(#paint63_linear)" />
        <path
            d="M538.852 65.9999C538.852 68.543 536.787 70.6045 534.239 70.6045C531.691 70.6045 529.625 68.543 529.625 65.9999C529.625 63.4568 531.691 61.3952 534.239 61.3952C536.787 61.3952 538.852 63.4568 538.852 65.9999Z"
            fill="url(#paint64_linear)" />
        <path
            d="M550.386 70.6045C552.934 70.6045 555 68.543 555 65.9999C555 63.4568 552.934 61.3952 550.386 61.3952C547.838 61.3952 545.773 63.4568 545.773 65.9999C545.773 68.543 547.838 70.6045 550.386 70.6045Z"
            fill="url(#paint65_linear)" />
        <path
            d="M361.227 81.3487C361.227 83.8918 359.162 85.9534 356.614 85.9534C354.066 85.9534 352 83.8918 352 81.3487C352 78.8056 354.066 76.7441 356.614 76.7441C359.162 76.7441 361.227 78.8056 361.227 81.3487Z"
            fill="url(#paint66_linear)" />
        <path
            d="M372.761 85.9534C375.309 85.9534 377.375 83.8918 377.375 81.3487C377.375 78.8056 375.309 76.7441 372.761 76.7441C370.213 76.7441 368.148 78.8056 368.148 81.3487C368.148 83.8918 370.213 85.9534 372.761 85.9534Z"
            fill="url(#paint67_linear)" />
        <path
            d="M393.523 81.3487C393.523 83.8918 391.457 85.9534 388.909 85.9534C386.361 85.9534 384.295 83.8918 384.295 81.3487C384.295 78.8056 386.361 76.7441 388.909 76.7441C391.457 76.7441 393.523 78.8056 393.523 81.3487Z"
            fill="url(#paint68_linear)" />
        <path
            d="M405.057 85.9534C407.605 85.9534 409.67 83.8918 409.67 81.3487C409.67 78.8056 407.605 76.7441 405.057 76.7441C402.509 76.7441 400.443 78.8056 400.443 81.3487C400.443 83.8918 402.509 85.9534 405.057 85.9534Z"
            fill="url(#paint69_linear)" />
        <path
            d="M425.818 81.3487C425.818 83.8918 423.753 85.9534 421.205 85.9534C418.657 85.9534 416.591 83.8918 416.591 81.3487C416.591 78.8056 418.657 76.7441 421.205 76.7441C423.753 76.7441 425.818 78.8056 425.818 81.3487Z"
            fill="url(#paint70_linear)" />
        <path
            d="M437.352 85.9534C439.9 85.9534 441.966 83.8918 441.966 81.3487C441.966 78.8056 439.9 76.7441 437.352 76.7441C434.804 76.7441 432.739 78.8056 432.739 81.3487C432.739 83.8918 434.804 85.9534 437.352 85.9534Z"
            fill="url(#paint71_linear)" />
        <path
            d="M458.114 81.3487C458.114 83.8918 456.048 85.9534 453.5 85.9534C450.952 85.9534 448.886 83.8918 448.886 81.3487C448.886 78.8056 450.952 76.7441 453.5 76.7441C456.048 76.7441 458.114 78.8056 458.114 81.3487Z"
            fill="url(#paint72_linear)" />
        <path
            d="M469.648 85.9534C472.196 85.9534 474.261 83.8918 474.261 81.3487C474.261 78.8056 472.196 76.7441 469.648 76.7441C467.1 76.7441 465.034 78.8056 465.034 81.3487C465.034 83.8918 467.1 85.9534 469.648 85.9534Z"
            fill="url(#paint73_linear)" />
        <path
            d="M490.409 81.3487C490.409 83.8918 488.344 85.9534 485.795 85.9534C483.247 85.9534 481.182 83.8918 481.182 81.3487C481.182 78.8056 483.247 76.7441 485.795 76.7441C488.344 76.7441 490.409 78.8056 490.409 81.3487Z"
            fill="url(#paint74_linear)" />
        <path
            d="M501.943 85.9534C504.491 85.9534 506.557 83.8918 506.557 81.3487C506.557 78.8056 504.491 76.7441 501.943 76.7441C499.395 76.7441 497.33 78.8056 497.33 81.3487C497.33 83.8918 499.395 85.9534 501.943 85.9534Z"
            fill="url(#paint75_linear)" />
        <path
            d="M522.705 81.3487C522.705 83.8918 520.639 85.9534 518.091 85.9534C515.543 85.9534 513.477 83.8918 513.477 81.3487C513.477 78.8056 515.543 76.7441 518.091 76.7441C520.639 76.7441 522.705 78.8056 522.705 81.3487Z"
            fill="url(#paint76_linear)" />
        <path
            d="M534.239 85.9534C536.787 85.9534 538.852 83.8918 538.852 81.3487C538.852 78.8056 536.787 76.7441 534.239 76.7441C531.691 76.7441 529.625 78.8056 529.625 81.3487C529.625 83.8918 531.691 85.9534 534.239 85.9534Z"
            fill="url(#paint77_linear)" />
        <path
            d="M555 81.3487C555 83.8918 552.934 85.9534 550.386 85.9534C547.838 85.9534 545.773 83.8918 545.773 81.3487C545.773 78.8056 547.838 76.7441 550.386 76.7441C552.934 76.7441 555 78.8056 555 81.3487Z"
            fill="url(#paint78_linear)" />
        <path
            d="M356.614 101.302C359.162 101.302 361.227 99.2406 361.227 96.6976C361.227 94.1545 359.162 92.0929 356.614 92.0929C354.066 92.0929 352 94.1545 352 96.6976C352 99.2406 354.066 101.302 356.614 101.302Z"
            fill="url(#paint79_linear)" />
        <path
            d="M377.375 96.6976C377.375 99.2406 375.309 101.302 372.761 101.302C370.213 101.302 368.148 99.2406 368.148 96.6976C368.148 94.1545 370.213 92.0929 372.761 92.0929C375.309 92.0929 377.375 94.1545 377.375 96.6976Z"
            fill="url(#paint80_linear)" />
        <path
            d="M388.909 101.302C391.457 101.302 393.523 99.2406 393.523 96.6976C393.523 94.1545 391.457 92.0929 388.909 92.0929C386.361 92.0929 384.295 94.1545 384.295 96.6976C384.295 99.2406 386.361 101.302 388.909 101.302Z"
            fill="url(#paint81_linear)" />
        <path
            d="M409.67 96.6976C409.67 99.2406 407.605 101.302 405.057 101.302C402.509 101.302 400.443 99.2406 400.443 96.6976C400.443 94.1545 402.509 92.0929 405.057 92.0929C407.605 92.0929 409.67 94.1545 409.67 96.6976Z"
            fill="url(#paint82_linear)" />
        <path
            d="M421.205 101.302C423.753 101.302 425.818 99.2406 425.818 96.6976C425.818 94.1545 423.753 92.0929 421.205 92.0929C418.657 92.0929 416.591 94.1545 416.591 96.6976C416.591 99.2406 418.657 101.302 421.205 101.302Z"
            fill="url(#paint83_linear)" />
        <path
            d="M441.966 96.6976C441.966 99.2406 439.9 101.302 437.352 101.302C434.804 101.302 432.739 99.2406 432.739 96.6976C432.739 94.1545 434.804 92.0929 437.352 92.0929C439.9 92.0929 441.966 94.1545 441.966 96.6976Z"
            fill="url(#paint84_linear)" />
        <path
            d="M453.5 101.302C456.048 101.302 458.114 99.2406 458.114 96.6976C458.114 94.1545 456.048 92.0929 453.5 92.0929C450.952 92.0929 448.886 94.1545 448.886 96.6976C448.886 99.2406 450.952 101.302 453.5 101.302Z"
            fill="url(#paint85_linear)" />
        <path
            d="M474.261 96.6976C474.261 99.2406 472.196 101.302 469.648 101.302C467.1 101.302 465.034 99.2406 465.034 96.6976C465.034 94.1545 467.1 92.0929 469.648 92.0929C472.196 92.0929 474.261 94.1545 474.261 96.6976Z"
            fill="url(#paint86_linear)" />
        <path
            d="M485.795 101.302C488.344 101.302 490.409 99.2406 490.409 96.6976C490.409 94.1545 488.344 92.0929 485.795 92.0929C483.247 92.0929 481.182 94.1545 481.182 96.6976C481.182 99.2406 483.247 101.302 485.795 101.302Z"
            fill="url(#paint87_linear)" />
        <path
            d="M506.557 96.6976C506.557 99.2406 504.491 101.302 501.943 101.302C499.395 101.302 497.33 99.2406 497.33 96.6976C497.33 94.1545 499.395 92.0929 501.943 92.0929C504.491 92.0929 506.557 94.1545 506.557 96.6976Z"
            fill="url(#paint88_linear)" />
        <path
            d="M518.091 101.302C520.639 101.302 522.705 99.2406 522.705 96.6976C522.705 94.1545 520.639 92.0929 518.091 92.0929C515.543 92.0929 513.477 94.1545 513.477 96.6976C513.477 99.2406 515.543 101.302 518.091 101.302Z"
            fill="url(#paint89_linear)" />
        <path
            d="M538.852 96.6976C538.852 99.2406 536.787 101.302 534.239 101.302C531.691 101.302 529.625 99.2406 529.625 96.6976C529.625 94.1545 531.691 92.0929 534.239 92.0929C536.787 92.0929 538.852 94.1545 538.852 96.6976Z"
            fill="url(#paint90_linear)" />
        <path
            d="M550.386 101.302C552.934 101.302 555 99.2406 555 96.6976C555 94.1545 552.934 92.0929 550.386 92.0929C547.838 92.0929 545.773 94.1545 545.773 96.6976C545.773 99.2406 547.838 101.302 550.386 101.302Z"
            fill="url(#paint91_linear)" />
        <path
            d="M361.227 112.046C361.227 114.589 359.162 116.651 356.614 116.651C354.066 116.651 352 114.589 352 112.046C352 109.503 354.066 107.442 356.614 107.442C359.162 107.442 361.227 109.503 361.227 112.046Z"
            fill="url(#paint92_linear)" />
        <path
            d="M372.761 116.651C375.309 116.651 377.375 114.589 377.375 112.046C377.375 109.503 375.309 107.442 372.761 107.442C370.213 107.442 368.148 109.503 368.148 112.046C368.148 114.589 370.213 116.651 372.761 116.651Z"
            fill="url(#paint93_linear)" />
        <path
            d="M393.523 112.046C393.523 114.589 391.457 116.651 388.909 116.651C386.361 116.651 384.295 114.589 384.295 112.046C384.295 109.503 386.361 107.442 388.909 107.442C391.457 107.442 393.523 109.503 393.523 112.046Z"
            fill="url(#paint94_linear)" />
        <path
            d="M405.057 116.651C407.605 116.651 409.67 114.589 409.67 112.046C409.67 109.503 407.605 107.442 405.057 107.442C402.509 107.442 400.443 109.503 400.443 112.046C400.443 114.589 402.509 116.651 405.057 116.651Z"
            fill="url(#paint95_linear)" />
        <path
            d="M425.818 112.046C425.818 114.589 423.753 116.651 421.205 116.651C418.657 116.651 416.591 114.589 416.591 112.046C416.591 109.503 418.657 107.442 421.205 107.442C423.753 107.442 425.818 109.503 425.818 112.046Z"
            fill="url(#paint96_linear)" />
        <path
            d="M437.352 116.651C439.9 116.651 441.966 114.589 441.966 112.046C441.966 109.503 439.9 107.442 437.352 107.442C434.804 107.442 432.739 109.503 432.739 112.046C432.739 114.589 434.804 116.651 437.352 116.651Z"
            fill="url(#paint97_linear)" />
        <path
            d="M458.114 112.046C458.114 114.589 456.048 116.651 453.5 116.651C450.952 116.651 448.886 114.589 448.886 112.046C448.886 109.503 450.952 107.442 453.5 107.442C456.048 107.442 458.114 109.503 458.114 112.046Z"
            fill="url(#paint98_linear)" />
        <path
            d="M469.648 116.651C472.196 116.651 474.261 114.589 474.261 112.046C474.261 109.503 472.196 107.442 469.648 107.442C467.1 107.442 465.034 109.503 465.034 112.046C465.034 114.589 467.1 116.651 469.648 116.651Z"
            fill="url(#paint99_linear)" />
        <path
            d="M490.409 112.046C490.409 114.589 488.344 116.651 485.795 116.651C483.247 116.651 481.182 114.589 481.182 112.046C481.182 109.503 483.247 107.442 485.795 107.442C488.344 107.442 490.409 109.503 490.409 112.046Z"
            fill="url(#paint100_linear)" />
        <path
            d="M501.943 116.651C504.491 116.651 506.557 114.589 506.557 112.046C506.557 109.503 504.491 107.442 501.943 107.442C499.395 107.442 497.33 109.503 497.33 112.046C497.33 114.589 499.395 116.651 501.943 116.651Z"
            fill="url(#paint101_linear)" />
        <path
            d="M522.705 112.046C522.705 114.589 520.639 116.651 518.091 116.651C515.543 116.651 513.477 114.589 513.477 112.046C513.477 109.503 515.543 107.442 518.091 107.442C520.639 107.442 522.705 109.503 522.705 112.046Z"
            fill="url(#paint102_linear)" />
        <path
            d="M534.239 116.651C536.787 116.651 538.852 114.589 538.852 112.046C538.852 109.503 536.787 107.442 534.239 107.442C531.691 107.442 529.625 109.503 529.625 112.046C529.625 114.589 531.691 116.651 534.239 116.651Z"
            fill="url(#paint103_linear)" />
        <path
            d="M555 112.046C555 114.589 552.934 116.651 550.386 116.651C547.838 116.651 545.773 114.589 545.773 112.046C545.773 109.503 547.838 107.442 550.386 107.442C552.934 107.442 555 109.503 555 112.046Z"
            fill="url(#paint104_linear)" />
        <path
            d="M356.614 132C359.162 132 361.227 129.938 361.227 127.395C361.227 124.852 359.162 122.791 356.614 122.791C354.066 122.791 352 124.852 352 127.395C352 129.938 354.066 132 356.614 132Z"
            fill="url(#paint105_linear)" />
        <path
            d="M377.375 127.395C377.375 129.938 375.309 132 372.761 132C370.213 132 368.148 129.938 368.148 127.395C368.148 124.852 370.213 122.791 372.761 122.791C375.309 122.791 377.375 124.852 377.375 127.395Z"
            fill="url(#paint106_linear)" />
        <path
            d="M388.909 132C391.457 132 393.523 129.938 393.523 127.395C393.523 124.852 391.457 122.791 388.909 122.791C386.361 122.791 384.295 124.852 384.295 127.395C384.295 129.938 386.361 132 388.909 132Z"
            fill="url(#paint107_linear)" />
        <path
            d="M409.67 127.395C409.67 129.938 407.605 132 405.057 132C402.509 132 400.443 129.938 400.443 127.395C400.443 124.852 402.509 122.791 405.057 122.791C407.605 122.791 409.67 124.852 409.67 127.395Z"
            fill="url(#paint108_linear)" />
        <path
            d="M421.205 132C423.753 132 425.818 129.938 425.818 127.395C425.818 124.852 423.753 122.791 421.205 122.791C418.657 122.791 416.591 124.852 416.591 127.395C416.591 129.938 418.657 132 421.205 132Z"
            fill="url(#paint109_linear)" />
        <path
            d="M441.966 127.395C441.966 129.938 439.9 132 437.352 132C434.804 132 432.739 129.938 432.739 127.395C432.739 124.852 434.804 122.791 437.352 122.791C439.9 122.791 441.966 124.852 441.966 127.395Z"
            fill="url(#paint110_linear)" />
        <path
            d="M453.5 132C456.048 132 458.114 129.938 458.114 127.395C458.114 124.852 456.048 122.791 453.5 122.791C450.952 122.791 448.886 124.852 448.886 127.395C448.886 129.938 450.952 132 453.5 132Z"
            fill="url(#paint111_linear)" />
        <path
            d="M474.261 127.395C474.261 129.938 472.196 132 469.648 132C467.1 132 465.034 129.938 465.034 127.395C465.034 124.852 467.1 122.791 469.648 122.791C472.196 122.791 474.261 124.852 474.261 127.395Z"
            fill="url(#paint112_linear)" />
        <path
            d="M485.795 132C488.344 132 490.409 129.938 490.409 127.395C490.409 124.852 488.344 122.791 485.795 122.791C483.247 122.791 481.182 124.852 481.182 127.395C481.182 129.938 483.247 132 485.795 132Z"
            fill="url(#paint113_linear)" />
        <path
            d="M506.557 127.395C506.557 129.938 504.491 132 501.943 132C499.395 132 497.33 129.938 497.33 127.395C497.33 124.852 499.395 122.791 501.943 122.791C504.491 122.791 506.557 124.852 506.557 127.395Z"
            fill="url(#paint114_linear)" />
        <path
            d="M518.091 132C520.639 132 522.705 129.938 522.705 127.395C522.705 124.852 520.639 122.791 518.091 122.791C515.543 122.791 513.477 124.852 513.477 127.395C513.477 129.938 515.543 132 518.091 132Z"
            fill="url(#paint115_linear)" />
        <path
            d="M538.852 127.395C538.852 129.938 536.787 132 534.239 132C531.691 132 529.625 129.938 529.625 127.395C529.625 124.852 531.691 122.791 534.239 122.791C536.787 122.791 538.852 124.852 538.852 127.395Z"
            fill="url(#paint116_linear)" />
        <path
            d="M550.386 132C552.934 132 555 129.938 555 127.395C555 124.852 552.934 122.791 550.386 122.791C547.838 122.791 545.773 124.852 545.773 127.395C545.773 129.938 547.838 132 550.386 132Z"
            fill="url(#paint117_linear)" />
    </g>
    <defs>
        <linearGradient id="paint0_linear" x1="819" y1="145.5" x2="-286.508" y2="527.18" gradientUnits="userSpaceOnUse">
            <stop stop-color="#3dc06e" stop-opacity="0" />
            <stop offset="1" stop-color="#319a58" stop-opacity="0.42" />
        </linearGradient>
        <linearGradient id="paint1_linear" x1="394.233" y1="40.0664" x2="516.147" y2="148.209"
            gradientUnits="userSpaceOnUse">
            <stop stop-color="#3dc06e" stop-opacity="0" />
            <stop offset="1" stop-color="#319a58" stop-opacity="0.42" />
        </linearGradient>
        <linearGradient id="paint2_linear" x1="394.233" y1="40.0664" x2="516.147" y2="148.209"
            gradientUnits="userSpaceOnUse">
            <stop stop-color="#3dc06e" stop-opacity="0" />
            <stop offset="1" stop-color="#319a58" stop-opacity="0.42" />
        </linearGradient>
        <linearGradient id="paint3_linear" x1="394.233" y1="40.0664" x2="516.147" y2="148.209"
            gradientUnits="userSpaceOnUse">
            <stop stop-color="#3dc06e" stop-opacity="0" />
            <stop offset="1" stop-color="#319a58" stop-opacity="0.42" />
        </linearGradient>
        <linearGradient id="paint4_linear" x1="394.233" y1="40.0664" x2="516.147" y2="148.209"
            gradientUnits="userSpaceOnUse">
            <stop stop-color="#3dc06e" stop-opacity="0" />
            <stop offset="1" stop-color="#319a58" stop-opacity="0.42" />
        </linearGradient>
        <linearGradient id="paint5_linear" x1="394.233" y1="40.0664" x2="516.147" y2="148.209"
            gradientUnits="userSpaceOnUse">
            <stop stop-color="#3dc06e" stop-opacity="0" />
            <stop offset="1" stop-color="#319a58" stop-opacity="0.42" />
        </linearGradient>
        <linearGradient id="paint6_linear" x1="394.233" y1="40.0664" x2="516.147" y2="148.209"
            gradientUnits="userSpaceOnUse">
            <stop stop-color="#3dc06e" stop-opacity="0" />
            <stop offset="1" stop-color="#319a58" stop-opacity="0.42" />
        </linearGradient>
        <linearGradient id="paint7_linear" x1="394.233" y1="40.0664" x2="516.147" y2="148.209"
            gradientUnits="userSpaceOnUse">
            <stop stop-color="#3dc06e" stop-opacity="0" />
            <stop offset="1" stop-color="#319a58" stop-opacity="0.42" />
        </linearGradient>
        <linearGradient id="paint8_linear" x1="394.233" y1="40.0664" x2="516.147" y2="148.209"
            gradientUnits="userSpaceOnUse">
            <stop stop-color="#3dc06e" stop-opacity="0" />
            <stop offset="1" stop-color="#319a58" stop-opacity="0.42" />
        </linearGradient>
        <linearGradient id="paint9_linear" x1="394.233" y1="40.0664" x2="516.147" y2="148.209"
            gradientUnits="userSpaceOnUse">
            <stop stop-color="#3dc06e" stop-opacity="0" />
            <stop offset="1" stop-color="#319a58" stop-opacity="0.42" />
        </linearGradient>
        <linearGradient id="paint10_linear" x1="394.233" y1="40.0664" x2="516.147" y2="148.209"
            gradientUnits="userSpaceOnUse">
            <stop stop-color="#3dc06e" stop-opacity="0" />
            <stop offset="1" stop-color="#319a58" stop-opacity="0.42" />
        </linearGradient>
        <linearGradient id="paint11_linear" x1="394.233" y1="40.0664" x2="516.147" y2="148.209"
            gradientUnits="userSpaceOnUse">
            <stop stop-color="#3dc06e" stop-opacity="0" />
            <stop offset="1" stop-color="#319a58" stop-opacity="0.42" />
        </linearGradient>
        <linearGradient id="paint12_linear" x1="394.233" y1="40.0664" x2="516.147" y2="148.209"
            gradientUnits="userSpaceOnUse">
            <stop stop-color="#3dc06e" stop-opacity="0" />
            <stop offset="1" stop-color="#319a58" stop-opacity="0.42" />
        </linearGradient>
        <linearGradient id="paint13_linear" x1="394.233" y1="40.0664" x2="516.147" y2="148.209"
            gradientUnits="userSpaceOnUse">
            <stop stop-color="#3dc06e" stop-opacity="0" />
            <stop offset="1" stop-color="#319a58" stop-opacity="0.42" />
        </linearGradient>
        <linearGradient id="paint14_linear" x1="394.233" y1="40.0664" x2="516.147" y2="148.209"
            gradientUnits="userSpaceOnUse">
            <stop stop-color="#3dc06e" stop-opacity="0" />
            <stop offset="1" stop-color="#319a58" stop-opacity="0.42" />
        </linearGradient>
        <linearGradient id="paint15_linear" x1="394.233" y1="40.0664" x2="516.147" y2="148.209"
            gradientUnits="userSpaceOnUse">
            <stop stop-color="#3dc06e" stop-opacity="0" />
            <stop offset="1" stop-color="#319a58" stop-opacity="0.42" />
        </linearGradient>
        <linearGradient id="paint16_linear" x1="394.233" y1="40.0664" x2="516.147" y2="148.209"
            gradientUnits="userSpaceOnUse">
            <stop stop-color="#3dc06e" stop-opacity="0" />
            <stop offset="1" stop-color="#319a58" stop-opacity="0.42" />
        </linearGradient>
        <linearGradient id="paint17_linear" x1="394.233" y1="40.0664" x2="516.147" y2="148.209"
            gradientUnits="userSpaceOnUse">
            <stop stop-color="#3dc06e" stop-opacity="0" />
            <stop offset="1" stop-color="#319a58" stop-opacity="0.42" />
        </linearGradient>
        <linearGradient id="paint18_linear" x1="394.233" y1="40.0664" x2="516.147" y2="148.209"
            gradientUnits="userSpaceOnUse">
            <stop stop-color="#3dc06e" stop-opacity="0" />
            <stop offset="1" stop-color="#319a58" stop-opacity="0.42" />
        </linearGradient>
        <linearGradient id="paint19_linear" x1="394.233" y1="40.0664" x2="516.147" y2="148.209"
            gradientUnits="userSpaceOnUse">
            <stop stop-color="#3dc06e" stop-opacity="0" />
            <stop offset="1" stop-color="#319a58" stop-opacity="0.42" />
        </linearGradient>
        <linearGradient id="paint20_linear" x1="394.233" y1="40.0664" x2="516.147" y2="148.209"
            gradientUnits="userSpaceOnUse">
            <stop stop-color="#3dc06e" stop-opacity="0" />
            <stop offset="1" stop-color="#319a58" stop-opacity="0.42" />
        </linearGradient>
        <linearGradient id="paint21_linear" x1="394.233" y1="40.0664" x2="516.147" y2="148.209"
            gradientUnits="userSpaceOnUse">
            <stop stop-color="#3dc06e" stop-opacity="0" />
            <stop offset="1" stop-color="#319a58" stop-opacity="0.42" />
        </linearGradient>
        <linearGradient id="paint22_linear" x1="394.233" y1="40.0664" x2="516.147" y2="148.209"
            gradientUnits="userSpaceOnUse">
            <stop stop-color="#3dc06e" stop-opacity="0" />
            <stop offset="1" stop-color="#319a58" stop-opacity="0.42" />
        </linearGradient>
        <linearGradient id="paint23_linear" x1="394.233" y1="40.0664" x2="516.147" y2="148.209"
            gradientUnits="userSpaceOnUse">
            <stop stop-color="#3dc06e" stop-opacity="0" />
            <stop offset="1" stop-color="#319a58" stop-opacity="0.42" />
        </linearGradient>
        <linearGradient id="paint24_linear" x1="394.233" y1="40.0664" x2="516.147" y2="148.209"
            gradientUnits="userSpaceOnUse">
            <stop stop-color="#3dc06e" stop-opacity="0" />
            <stop offset="1" stop-color="#319a58" stop-opacity="0.42" />
        </linearGradient>
        <linearGradient id="paint25_linear" x1="394.233" y1="40.0664" x2="516.147" y2="148.209"
            gradientUnits="userSpaceOnUse">
            <stop stop-color="#3dc06e" stop-opacity="0" />
            <stop offset="1" stop-color="#319a58" stop-opacity="0.42" />
        </linearGradient>
        <linearGradient id="paint26_linear" x1="394.233" y1="40.0664" x2="516.147" y2="148.209"
            gradientUnits="userSpaceOnUse">
            <stop stop-color="#3dc06e" stop-opacity="0" />
            <stop offset="1" stop-color="#319a58" stop-opacity="0.42" />
        </linearGradient>
        <linearGradient id="paint27_linear" x1="394.233" y1="40.0664" x2="516.147" y2="148.209"
            gradientUnits="userSpaceOnUse">
            <stop stop-color="#3dc06e" stop-opacity="0" />
            <stop offset="1" stop-color="#319a58" stop-opacity="0.42" />
        </linearGradient>
        <linearGradient id="paint28_linear" x1="394.233" y1="40.0664" x2="516.147" y2="148.209"
            gradientUnits="userSpaceOnUse">
            <stop stop-color="#3dc06e" stop-opacity="0" />
            <stop offset="1" stop-color="#319a58" stop-opacity="0.42" />
        </linearGradient>
        <linearGradient id="paint29_linear" x1="394.233" y1="40.0664" x2="516.147" y2="148.209"
            gradientUnits="userSpaceOnUse">
            <stop stop-color="#3dc06e" stop-opacity="0" />
            <stop offset="1" stop-color="#319a58" stop-opacity="0.42" />
        </linearGradient>
        <linearGradient id="paint30_linear" x1="394.233" y1="40.0664" x2="516.147" y2="148.209"
            gradientUnits="userSpaceOnUse">
            <stop stop-color="#3dc06e" stop-opacity="0" />
            <stop offset="1" stop-color="#319a58" stop-opacity="0.42" />
        </linearGradient>
        <linearGradient id="paint31_linear" x1="394.233" y1="40.0664" x2="516.147" y2="148.209"
            gradientUnits="userSpaceOnUse">
            <stop stop-color="#3dc06e" stop-opacity="0" />
            <stop offset="1" stop-color="#319a58" stop-opacity="0.42" />
        </linearGradient>
        <linearGradient id="paint32_linear" x1="394.233" y1="40.0664" x2="516.147" y2="148.209"
            gradientUnits="userSpaceOnUse">
            <stop stop-color="#3dc06e" stop-opacity="0" />
            <stop offset="1" stop-color="#319a58" stop-opacity="0.42" />
        </linearGradient>
        <linearGradient id="paint33_linear" x1="394.233" y1="40.0664" x2="516.147" y2="148.209"
            gradientUnits="userSpaceOnUse">
            <stop stop-color="#3dc06e" stop-opacity="0" />
            <stop offset="1" stop-color="#319a58" stop-opacity="0.42" />
        </linearGradient>
        <linearGradient id="paint34_linear" x1="394.233" y1="40.0664" x2="516.147" y2="148.209"
            gradientUnits="userSpaceOnUse">
            <stop stop-color="#3dc06e" stop-opacity="0" />
            <stop offset="1" stop-color="#319a58" stop-opacity="0.42" />
        </linearGradient>
        <linearGradient id="paint35_linear" x1="394.233" y1="40.0664" x2="516.147" y2="148.209"
            gradientUnits="userSpaceOnUse">
            <stop stop-color="#3dc06e" stop-opacity="0" />
            <stop offset="1" stop-color="#319a58" stop-opacity="0.42" />
        </linearGradient>
        <linearGradient id="paint36_linear" x1="394.233" y1="40.0664" x2="516.147" y2="148.209"
            gradientUnits="userSpaceOnUse">
            <stop stop-color="#3dc06e" stop-opacity="0" />
            <stop offset="1" stop-color="#319a58" stop-opacity="0.42" />
        </linearGradient>
        <linearGradient id="paint37_linear" x1="394.233" y1="40.0664" x2="516.147" y2="148.209"
            gradientUnits="userSpaceOnUse">
            <stop stop-color="#3dc06e" stop-opacity="0" />
            <stop offset="1" stop-color="#319a58" stop-opacity="0.42" />
        </linearGradient>
        <linearGradient id="paint38_linear" x1="394.233" y1="40.0664" x2="516.147" y2="148.209"
            gradientUnits="userSpaceOnUse">
            <stop stop-color="#3dc06e" stop-opacity="0" />
            <stop offset="1" stop-color="#319a58" stop-opacity="0.42" />
        </linearGradient>
        <linearGradient id="paint39_linear" x1="394.233" y1="40.0664" x2="516.147" y2="148.209"
            gradientUnits="userSpaceOnUse">
            <stop stop-color="#3dc06e" stop-opacity="0" />
            <stop offset="1" stop-color="#319a58" stop-opacity="0.42" />
        </linearGradient>
        <linearGradient id="paint40_linear" x1="394.233" y1="40.0664" x2="516.147" y2="148.209"
            gradientUnits="userSpaceOnUse">
            <stop stop-color="#3dc06e" stop-opacity="0" />
            <stop offset="1" stop-color="#319a58" stop-opacity="0.42" />
        </linearGradient>
        <linearGradient id="paint41_linear" x1="394.233" y1="40.0664" x2="516.147" y2="148.209"
            gradientUnits="userSpaceOnUse">
            <stop stop-color="#3dc06e" stop-opacity="0" />
            <stop offset="1" stop-color="#319a58" stop-opacity="0.42" />
        </linearGradient>
        <linearGradient id="paint42_linear" x1="394.233" y1="40.0664" x2="516.147" y2="148.209"
            gradientUnits="userSpaceOnUse">
            <stop stop-color="#3dc06e" stop-opacity="0" />
            <stop offset="1" stop-color="#319a58" stop-opacity="0.42" />
        </linearGradient>
        <linearGradient id="paint43_linear" x1="394.233" y1="40.0664" x2="516.147" y2="148.209"
            gradientUnits="userSpaceOnUse">
            <stop stop-color="#3dc06e" stop-opacity="0" />
            <stop offset="1" stop-color="#319a58" stop-opacity="0.42" />
        </linearGradient>
        <linearGradient id="paint44_linear" x1="394.233" y1="40.0664" x2="516.147" y2="148.209"
            gradientUnits="userSpaceOnUse">
            <stop stop-color="#3dc06e" stop-opacity="0" />
            <stop offset="1" stop-color="#319a58" stop-opacity="0.42" />
        </linearGradient>
        <linearGradient id="paint45_linear" x1="394.233" y1="40.0664" x2="516.147" y2="148.209"
            gradientUnits="userSpaceOnUse">
            <stop stop-color="#3dc06e" stop-opacity="0" />
            <stop offset="1" stop-color="#319a58" stop-opacity="0.42" />
        </linearGradient>
        <linearGradient id="paint46_linear" x1="394.233" y1="40.0664" x2="516.147" y2="148.209"
            gradientUnits="userSpaceOnUse">
            <stop stop-color="#3dc06e" stop-opacity="0" />
            <stop offset="1" stop-color="#319a58" stop-opacity="0.42" />
        </linearGradient>
        <linearGradient id="paint47_linear" x1="394.233" y1="40.0664" x2="516.147" y2="148.209"
            gradientUnits="userSpaceOnUse">
            <stop stop-color="#3dc06e" stop-opacity="0" />
            <stop offset="1" stop-color="#319a58" stop-opacity="0.42" />
        </linearGradient>
        <linearGradient id="paint48_linear" x1="394.233" y1="40.0664" x2="516.147" y2="148.209"
            gradientUnits="userSpaceOnUse">
            <stop stop-color="#3dc06e" stop-opacity="0" />
            <stop offset="1" stop-color="#319a58" stop-opacity="0.42" />
        </linearGradient>
        <linearGradient id="paint49_linear" x1="394.233" y1="40.0664" x2="516.147" y2="148.209"
            gradientUnits="userSpaceOnUse">
            <stop stop-color="#3dc06e" stop-opacity="0" />
            <stop offset="1" stop-color="#319a58" stop-opacity="0.42" />
        </linearGradient>
        <linearGradient id="paint50_linear" x1="394.233" y1="40.0664" x2="516.147" y2="148.209"
            gradientUnits="userSpaceOnUse">
            <stop stop-color="#3dc06e" stop-opacity="0" />
            <stop offset="1" stop-color="#319a58" stop-opacity="0.42" />
        </linearGradient>
        <linearGradient id="paint51_linear" x1="394.233" y1="40.0664" x2="516.147" y2="148.209"
            gradientUnits="userSpaceOnUse">
            <stop stop-color="#3dc06e" stop-opacity="0" />
            <stop offset="1" stop-color="#319a58" stop-opacity="0.42" />
        </linearGradient>
        <linearGradient id="paint52_linear" x1="394.233" y1="40.0664" x2="516.147" y2="148.209"
            gradientUnits="userSpaceOnUse">
            <stop stop-color="#3dc06e" stop-opacity="0" />
            <stop offset="1" stop-color="#319a58" stop-opacity="0.42" />
        </linearGradient>
        <linearGradient id="paint53_linear" x1="394.233" y1="40.0664" x2="516.147" y2="148.209"
            gradientUnits="userSpaceOnUse">
            <stop stop-color="#3dc06e" stop-opacity="0" />
            <stop offset="1" stop-color="#319a58" stop-opacity="0.42" />
        </linearGradient>
        <linearGradient id="paint54_linear" x1="394.233" y1="40.0664" x2="516.147" y2="148.209"
            gradientUnits="userSpaceOnUse">
            <stop stop-color="#3dc06e" stop-opacity="0" />
            <stop offset="1" stop-color="#319a58" stop-opacity="0.42" />
        </linearGradient>
        <linearGradient id="paint55_linear" x1="394.233" y1="40.0664" x2="516.147" y2="148.209"
            gradientUnits="userSpaceOnUse">
            <stop stop-color="#3dc06e" stop-opacity="0" />
            <stop offset="1" stop-color="#319a58" stop-opacity="0.42" />
        </linearGradient>
        <linearGradient id="paint56_linear" x1="394.233" y1="40.0664" x2="516.147" y2="148.209"
            gradientUnits="userSpaceOnUse">
            <stop stop-color="#3dc06e" stop-opacity="0" />
            <stop offset="1" stop-color="#319a58" stop-opacity="0.42" />
        </linearGradient>
        <linearGradient id="paint57_linear" x1="394.233" y1="40.0664" x2="516.147" y2="148.209"
            gradientUnits="userSpaceOnUse">
            <stop stop-color="#3dc06e" stop-opacity="0" />
            <stop offset="1" stop-color="#319a58" stop-opacity="0.42" />
        </linearGradient>
        <linearGradient id="paint58_linear" x1="394.233" y1="40.0664" x2="516.147" y2="148.209"
            gradientUnits="userSpaceOnUse">
            <stop stop-color="#3dc06e" stop-opacity="0" />
            <stop offset="1" stop-color="#319a58" stop-opacity="0.42" />
        </linearGradient>
        <linearGradient id="paint59_linear" x1="394.233" y1="40.0664" x2="516.147" y2="148.209"
            gradientUnits="userSpaceOnUse">
            <stop stop-color="#3dc06e" stop-opacity="0" />
            <stop offset="1" stop-color="#319a58" stop-opacity="0.42" />
        </linearGradient>
        <linearGradient id="paint60_linear" x1="394.233" y1="40.0664" x2="516.147" y2="148.209"
            gradientUnits="userSpaceOnUse">
            <stop stop-color="#3dc06e" stop-opacity="0" />
            <stop offset="1" stop-color="#319a58" stop-opacity="0.42" />
        </linearGradient>
        <linearGradient id="paint61_linear" x1="394.233" y1="40.0664" x2="516.147" y2="148.209"
            gradientUnits="userSpaceOnUse">
            <stop stop-color="#3dc06e" stop-opacity="0" />
            <stop offset="1" stop-color="#319a58" stop-opacity="0.42" />
        </linearGradient>
        <linearGradient id="paint62_linear" x1="394.233" y1="40.0664" x2="516.147" y2="148.209"
            gradientUnits="userSpaceOnUse">
            <stop stop-color="#3dc06e" stop-opacity="0" />
            <stop offset="1" stop-color="#319a58" stop-opacity="0.42" />
        </linearGradient>
        <linearGradient id="paint63_linear" x1="394.233" y1="40.0664" x2="516.147" y2="148.209"
            gradientUnits="userSpaceOnUse">
            <stop stop-color="#3dc06e" stop-opacity="0" />
            <stop offset="1" stop-color="#319a58" stop-opacity="0.42" />
        </linearGradient>
        <linearGradient id="paint64_linear" x1="394.233" y1="40.0664" x2="516.147" y2="148.209"
            gradientUnits="userSpaceOnUse">
            <stop stop-color="#3dc06e" stop-opacity="0" />
            <stop offset="1" stop-color="#319a58" stop-opacity="0.42" />
        </linearGradient>
        <linearGradient id="paint65_linear" x1="394.233" y1="40.0664" x2="516.147" y2="148.209"
            gradientUnits="userSpaceOnUse">
            <stop stop-color="#3dc06e" stop-opacity="0" />
            <stop offset="1" stop-color="#319a58" stop-opacity="0.42" />
        </linearGradient>
        <linearGradient id="paint66_linear" x1="394.233" y1="40.0664" x2="516.147" y2="148.209"
            gradientUnits="userSpaceOnUse">
            <stop stop-color="#3dc06e" stop-opacity="0" />
            <stop offset="1" stop-color="#319a58" stop-opacity="0.42" />
        </linearGradient>
        <linearGradient id="paint67_linear" x1="394.233" y1="40.0664" x2="516.147" y2="148.209"
            gradientUnits="userSpaceOnUse">
            <stop stop-color="#3dc06e" stop-opacity="0" />
            <stop offset="1" stop-color="#319a58" stop-opacity="0.42" />
        </linearGradient>
        <linearGradient id="paint68_linear" x1="394.233" y1="40.0664" x2="516.147" y2="148.209"
            gradientUnits="userSpaceOnUse">
            <stop stop-color="#3dc06e" stop-opacity="0" />
            <stop offset="1" stop-color="#319a58" stop-opacity="0.42" />
        </linearGradient>
        <linearGradient id="paint69_linear" x1="394.233" y1="40.0664" x2="516.147" y2="148.209"
            gradientUnits="userSpaceOnUse">
            <stop stop-color="#3dc06e" stop-opacity="0" />
            <stop offset="1" stop-color="#319a58" stop-opacity="0.42" />
        </linearGradient>
        <linearGradient id="paint70_linear" x1="394.233" y1="40.0664" x2="516.147" y2="148.209"
            gradientUnits="userSpaceOnUse">
            <stop stop-color="#3dc06e" stop-opacity="0" />
            <stop offset="1" stop-color="#319a58" stop-opacity="0.42" />
        </linearGradient>
        <linearGradient id="paint71_linear" x1="394.233" y1="40.0664" x2="516.147" y2="148.209"
            gradientUnits="userSpaceOnUse">
            <stop stop-color="#3dc06e" stop-opacity="0" />
            <stop offset="1" stop-color="#319a58" stop-opacity="0.42" />
        </linearGradient>
        <linearGradient id="paint72_linear" x1="394.233" y1="40.0664" x2="516.147" y2="148.209"
            gradientUnits="userSpaceOnUse">
            <stop stop-color="#3dc06e" stop-opacity="0" />
            <stop offset="1" stop-color="#319a58" stop-opacity="0.42" />
        </linearGradient>
        <linearGradient id="paint73_linear" x1="394.233" y1="40.0664" x2="516.147" y2="148.209"
            gradientUnits="userSpaceOnUse">
            <stop stop-color="#3dc06e" stop-opacity="0" />
            <stop offset="1" stop-color="#319a58" stop-opacity="0.42" />
        </linearGradient>
        <linearGradient id="paint74_linear" x1="394.233" y1="40.0664" x2="516.147" y2="148.209"
            gradientUnits="userSpaceOnUse">
            <stop stop-color="#3dc06e" stop-opacity="0" />
            <stop offset="1" stop-color="#319a58" stop-opacity="0.42" />
        </linearGradient>
        <linearGradient id="paint75_linear" x1="394.233" y1="40.0664" x2="516.147" y2="148.209"
            gradientUnits="userSpaceOnUse">
            <stop stop-color="#3dc06e" stop-opacity="0" />
            <stop offset="1" stop-color="#319a58" stop-opacity="0.42" />
        </linearGradient>
        <linearGradient id="paint76_linear" x1="394.233" y1="40.0664" x2="516.147" y2="148.209"
            gradientUnits="userSpaceOnUse">
            <stop stop-color="#3dc06e" stop-opacity="0" />
            <stop offset="1" stop-color="#319a58" stop-opacity="0.42" />
        </linearGradient>
        <linearGradient id="paint77_linear" x1="394.233" y1="40.0664" x2="516.147" y2="148.209"
            gradientUnits="userSpaceOnUse">
            <stop stop-color="#3dc06e" stop-opacity="0" />
            <stop offset="1" stop-color="#319a58" stop-opacity="0.42" />
        </linearGradient>
        <linearGradient id="paint78_linear" x1="394.233" y1="40.0664" x2="516.147" y2="148.209"
            gradientUnits="userSpaceOnUse">
            <stop stop-color="#3dc06e" stop-opacity="0" />
            <stop offset="1" stop-color="#319a58" stop-opacity="0.42" />
        </linearGradient>
        <linearGradient id="paint79_linear" x1="394.233" y1="40.0664" x2="516.147" y2="148.209"
            gradientUnits="userSpaceOnUse">
            <stop stop-color="#3dc06e" stop-opacity="0" />
            <stop offset="1" stop-color="#319a58" stop-opacity="0.42" />
        </linearGradient>
        <linearGradient id="paint80_linear" x1="394.233" y1="40.0664" x2="516.147" y2="148.209"
            gradientUnits="userSpaceOnUse">
            <stop stop-color="#3dc06e" stop-opacity="0" />
            <stop offset="1" stop-color="#319a58" stop-opacity="0.42" />
        </linearGradient>
        <linearGradient id="paint81_linear" x1="394.233" y1="40.0664" x2="516.147" y2="148.209"
            gradientUnits="userSpaceOnUse">
            <stop stop-color="#3dc06e" stop-opacity="0" />
            <stop offset="1" stop-color="#319a58" stop-opacity="0.42" />
        </linearGradient>
        <linearGradient id="paint82_linear" x1="394.233" y1="40.0664" x2="516.147" y2="148.209"
            gradientUnits="userSpaceOnUse">
            <stop stop-color="#3dc06e" stop-opacity="0" />
            <stop offset="1" stop-color="#319a58" stop-opacity="0.42" />
        </linearGradient>
        <linearGradient id="paint83_linear" x1="394.233" y1="40.0664" x2="516.147" y2="148.209"
            gradientUnits="userSpaceOnUse">
            <stop stop-color="#3dc06e" stop-opacity="0" />
            <stop offset="1" stop-color="#319a58" stop-opacity="0.42" />
        </linearGradient>
        <linearGradient id="paint84_linear" x1="394.233" y1="40.0664" x2="516.147" y2="148.209"
            gradientUnits="userSpaceOnUse">
            <stop stop-color="#3dc06e" stop-opacity="0" />
            <stop offset="1" stop-color="#319a58" stop-opacity="0.42" />
        </linearGradient>
        <linearGradient id="paint85_linear" x1="394.233" y1="40.0664" x2="516.147" y2="148.209"
            gradientUnits="userSpaceOnUse">
            <stop stop-color="#3dc06e" stop-opacity="0" />
            <stop offset="1" stop-color="#319a58" stop-opacity="0.42" />
        </linearGradient>
        <linearGradient id="paint86_linear" x1="394.233" y1="40.0664" x2="516.147" y2="148.209"
            gradientUnits="userSpaceOnUse">
            <stop stop-color="#3dc06e" stop-opacity="0" />
            <stop offset="1" stop-color="#319a58" stop-opacity="0.42" />
        </linearGradient>
        <linearGradient id="paint87_linear" x1="394.233" y1="40.0664" x2="516.147" y2="148.209"
            gradientUnits="userSpaceOnUse">
            <stop stop-color="#3dc06e" stop-opacity="0" />
            <stop offset="1" stop-color="#319a58" stop-opacity="0.42" />
        </linearGradient>
        <linearGradient id="paint88_linear" x1="394.233" y1="40.0664" x2="516.147" y2="148.209"
            gradientUnits="userSpaceOnUse">
            <stop stop-color="#3dc06e" stop-opacity="0" />
            <stop offset="1" stop-color="#319a58" stop-opacity="0.42" />
        </linearGradient>
        <linearGradient id="paint89_linear" x1="394.233" y1="40.0664" x2="516.147" y2="148.209"
            gradientUnits="userSpaceOnUse">
            <stop stop-color="#3dc06e" stop-opacity="0" />
            <stop offset="1" stop-color="#319a58" stop-opacity="0.42" />
        </linearGradient>
        <linearGradient id="paint90_linear" x1="394.233" y1="40.0664" x2="516.147" y2="148.209"
            gradientUnits="userSpaceOnUse">
            <stop stop-color="#3dc06e" stop-opacity="0" />
            <stop offset="1" stop-color="#319a58" stop-opacity="0.42" />
        </linearGradient>
        <linearGradient id="paint91_linear" x1="394.233" y1="40.0664" x2="516.147" y2="148.209"
            gradientUnits="userSpaceOnUse">
            <stop stop-color="#3dc06e" stop-opacity="0" />
            <stop offset="1" stop-color="#319a58" stop-opacity="0.42" />
        </linearGradient>
        <linearGradient id="paint92_linear" x1="394.233" y1="40.0664" x2="516.147" y2="148.209"
            gradientUnits="userSpaceOnUse">
            <stop stop-color="#3dc06e" stop-opacity="0" />
            <stop offset="1" stop-color="#319a58" stop-opacity="0.42" />
        </linearGradient>
        <linearGradient id="paint93_linear" x1="394.233" y1="40.0664" x2="516.147" y2="148.209"
            gradientUnits="userSpaceOnUse">
            <stop stop-color="#3dc06e" stop-opacity="0" />
            <stop offset="1" stop-color="#319a58" stop-opacity="0.42" />
        </linearGradient>
        <linearGradient id="paint94_linear" x1="394.233" y1="40.0664" x2="516.147" y2="148.209"
            gradientUnits="userSpaceOnUse">
            <stop stop-color="#3dc06e" stop-opacity="0" />
            <stop offset="1" stop-color="#319a58" stop-opacity="0.42" />
        </linearGradient>
        <linearGradient id="paint95_linear" x1="394.233" y1="40.0664" x2="516.147" y2="148.209"
            gradientUnits="userSpaceOnUse">
            <stop stop-color="#3dc06e" stop-opacity="0" />
            <stop offset="1" stop-color="#319a58" stop-opacity="0.42" />
        </linearGradient>
        <linearGradient id="paint96_linear" x1="394.233" y1="40.0664" x2="516.147" y2="148.209"
            gradientUnits="userSpaceOnUse">
            <stop stop-color="#3dc06e" stop-opacity="0" />
            <stop offset="1" stop-color="#319a58" stop-opacity="0.42" />
        </linearGradient>
        <linearGradient id="paint97_linear" x1="394.233" y1="40.0664" x2="516.147" y2="148.209"
            gradientUnits="userSpaceOnUse">
            <stop stop-color="#3dc06e" stop-opacity="0" />
            <stop offset="1" stop-color="#319a58" stop-opacity="0.42" />
        </linearGradient>
        <linearGradient id="paint98_linear" x1="394.233" y1="40.0664" x2="516.147" y2="148.209"
            gradientUnits="userSpaceOnUse">
            <stop stop-color="#3dc06e" stop-opacity="0" />
            <stop offset="1" stop-color="#319a58" stop-opacity="0.42" />
        </linearGradient>
        <linearGradient id="paint99_linear" x1="394.233" y1="40.0664" x2="516.147" y2="148.209"
            gradientUnits="userSpaceOnUse">
            <stop stop-color="#3dc06e" stop-opacity="0" />
            <stop offset="1" stop-color="#319a58" stop-opacity="0.42" />
        </linearGradient>
        <linearGradient id="paint100_linear" x1="394.233" y1="40.0664" x2="516.147" y2="148.209"
            gradientUnits="userSpaceOnUse">
            <stop stop-color="#3dc06e" stop-opacity="0" />
            <stop offset="1" stop-color="#319a58" stop-opacity="0.42" />
        </linearGradient>
        <linearGradient id="paint101_linear" x1="394.233" y1="40.0664" x2="516.147" y2="148.209"
            gradientUnits="userSpaceOnUse">
            <stop stop-color="#3dc06e" stop-opacity="0" />
            <stop offset="1" stop-color="#319a58" stop-opacity="0.42" />
        </linearGradient>
        <linearGradient id="paint102_linear" x1="394.233" y1="40.0664" x2="516.147" y2="148.209"
            gradientUnits="userSpaceOnUse">
            <stop stop-color="#3dc06e" stop-opacity="0" />
            <stop offset="1" stop-color="#319a58" stop-opacity="0.42" />
        </linearGradient>
        <linearGradient id="paint103_linear" x1="394.233" y1="40.0664" x2="516.147" y2="148.209"
            gradientUnits="userSpaceOnUse">
            <stop stop-color="#3dc06e" stop-opacity="0" />
            <stop offset="1" stop-color="#319a58" stop-opacity="0.42" />
        </linearGradient>
        <linearGradient id="paint104_linear" x1="394.233" y1="40.0664" x2="516.147" y2="148.209"
            gradientUnits="userSpaceOnUse">
            <stop stop-color="#3dc06e" stop-opacity="0" />
            <stop offset="1" stop-color="#319a58" stop-opacity="0.42" />
        </linearGradient>
        <linearGradient id="paint105_linear" x1="394.233" y1="40.0664" x2="516.147" y2="148.209"
            gradientUnits="userSpaceOnUse">
            <stop stop-color="#3dc06e" stop-opacity="0" />
            <stop offset="1" stop-color="#319a58" stop-opacity="0.42" />
        </linearGradient>
        <linearGradient id="paint106_linear" x1="394.233" y1="40.0664" x2="516.147" y2="148.209"
            gradientUnits="userSpaceOnUse">
            <stop stop-color="#3dc06e" stop-opacity="0" />
            <stop offset="1" stop-color="#319a58" stop-opacity="0.42" />
        </linearGradient>
        <linearGradient id="paint107_linear" x1="394.233" y1="40.0664" x2="516.147" y2="148.209"
            gradientUnits="userSpaceOnUse">
            <stop stop-color="#3dc06e" stop-opacity="0" />
            <stop offset="1" stop-color="#319a58" stop-opacity="0.42" />
        </linearGradient>
        <linearGradient id="paint108_linear" x1="394.233" y1="40.0664" x2="516.147" y2="148.209"
            gradientUnits="userSpaceOnUse">
            <stop stop-color="#3dc06e" stop-opacity="0" />
            <stop offset="1" stop-color="#319a58" stop-opacity="0.42" />
        </linearGradient>
        <linearGradient id="paint109_linear" x1="394.233" y1="40.0664" x2="516.147" y2="148.209"
            gradientUnits="userSpaceOnUse">
            <stop stop-color="#3dc06e" stop-opacity="0" />
            <stop offset="1" stop-color="#319a58" stop-opacity="0.42" />
        </linearGradient>
        <linearGradient id="paint110_linear" x1="394.233" y1="40.0664" x2="516.147" y2="148.209"
            gradientUnits="userSpaceOnUse">
            <stop stop-color="#3dc06e" stop-opacity="0" />
            <stop offset="1" stop-color="#319a58" stop-opacity="0.42" />
        </linearGradient>
        <linearGradient id="paint111_linear" x1="394.233" y1="40.0664" x2="516.147" y2="148.209"
            gradientUnits="userSpaceOnUse">
            <stop stop-color="#3dc06e" stop-opacity="0" />
            <stop offset="1" stop-color="#319a58" stop-opacity="0.42" />
        </linearGradient>
        <linearGradient id="paint112_linear" x1="394.233" y1="40.0664" x2="516.147" y2="148.209"
            gradientUnits="userSpaceOnUse">
            <stop stop-color="#3dc06e" stop-opacity="0" />
            <stop offset="1" stop-color="#319a58" stop-opacity="0.42" />
        </linearGradient>
        <linearGradient id="paint113_linear" x1="394.233" y1="40.0664" x2="516.147" y2="148.209"
            gradientUnits="userSpaceOnUse">
            <stop stop-color="#3dc06e" stop-opacity="0" />
            <stop offset="1" stop-color="#319a58" stop-opacity="0.42" />
        </linearGradient>
        <linearGradient id="paint114_linear" x1="394.233" y1="40.0664" x2="516.147" y2="148.209"
            gradientUnits="userSpaceOnUse">
            <stop stop-color="#3dc06e" stop-opacity="0" />
            <stop offset="1" stop-color="#319a58" stop-opacity="0.42" />
        </linearGradient>
        <linearGradient id="paint115_linear" x1="394.233" y1="40.0664" x2="516.147" y2="148.209"
            gradientUnits="userSpaceOnUse">
            <stop stop-color="#3dc06e" stop-opacity="0" />
            <stop offset="1" stop-color="#319a58" stop-opacity="0.42" />
        </linearGradient>
        <linearGradient id="paint116_linear" x1="394.233" y1="40.0664" x2="516.147" y2="148.209"
            gradientUnits="userSpaceOnUse">
            <stop stop-color="#3dc06e" stop-opacity="0" />
            <stop offset="1" stop-color="#319a58" stop-opacity="0.42" />
        </linearGradient>
        <linearGradient id="paint117_linear" x1="394.233" y1="40.0664" x2="516.147" y2="148.209"
            gradientUnits="userSpaceOnUse">
            <stop stop-color="#3dc06e" stop-opacity="0" />
            <stop offset="1" stop-color="#319a58" stop-opacity="0.42" />
        </linearGradient>
    </defs>
</svg>
